…
sim_mean=function(mean){
  x=rnorm(30,mean,5)
  t_result=t.test(x,mu=0)
  tidy(t_result)
}
output=vector("list",5000)
for (i in 1:5000) {
  output[[i]]=sim_mean(0)
}
sim_result=bind_rows(output)
sim_result|>
  select(estimate,p.value)
```

    ## # A tibble: 5,000 × 2
    ##    estimate p.value
    ##       <dbl>   <dbl>
    ##  1  -1.08    0.245 
    ##  2  -0.0228  0.975 
    ##  3  -0.821   0.373 
    ##  4   0.507   0.602 
    ##  5  -1.20    0.201 
    ##  6   1.63    0.0653
    ##  7  -0.351   0.651 
    ##  8  -0.125   0.876 
    ##  9   0.360   0.743 
    ## 10  -0.454   0.452 
    ## # ℹ 4,990 more rows
…
    ## `summarise()` has grouped output by 'city'. You can override using the
    ## `.groups` argument.

    ## # A tibble: 50 × 3
    ## # Groups:   city [50]
    ##    city        total_homicides unsolved_homicides
    ##    <chr>                 <int>              <int>
    ##  1 Albuquerque             378                146
    ##  2 Atlanta                 973                373
    ##  3 Baltimore              2827               1825
    ##  4 Baton Rouge             424                196
    ##  5 Birmingham              800                347
    ##  6 Boston                  614                310
    ##  7 Buffalo                 521                319
    ##  8 Charlotte               687                206
    ##  9 Chicago                5535               4073
    ## 10 Cincinnati              694                309
    ## # ℹ 40 more rows
…
